[
  {
    "codigo_collar":100040,
    "fecha_hora":1454929200000,
    "ritmo_Cardiaco":180,
    "ubicacion_actual_latitud":4.719308,
    "ubicacion_actual_longitud":-74.04183,
    "paso_puerta":"salio"
  },
  {
    "codigo_collar":100003,
    "fecha_hora":1454929500000,
    "ritmo_Cardiaco":156,
    "ubicacion_actual_latitud":4.724286,
    "ubicacion_actual_longitud":-74.043982,
    "paso_puerta":"llego"
  },
  {
    "codigo_collar":100026,
    "fecha_hora":1454929800000,
    "ritmo_Cardiaco":289,
    "ubicacion_actual_latitud":4.723376,
    "ubicacion_actual_longitud":-74.04708,
    "paso_puerta":"llego"
  },
  {
    "codigo_collar":100001,
    "fecha_hora":1454930100000,
    "ritmo_Cardiaco":183,
    "ubicacion_actual_latitud":4.721981,
    "ubicacion_actual_longitud":-74.033722,
    "paso_puerta":"salio"
  },
  {
    "codigo_collar":100016,
    "fecha_hora":1454930400000,
    "ritmo_Cardiaco":217,
    "ubicacion_actual_latitud":4.717652,
    "ubicacion_actual_longitud":-74.035105,
    "paso_puerta":"llego"
  },
  {
    "codigo_collar":100019,
    "fecha_hora":1454930700000,
    "ritmo_Cardiaco":158,
    "ubicacion_actual_latitud":4.720465,
    "ubicacion_actual_longitud":-74.038081,
    "paso_puerta":""
  },
  {
    "codigo_collar":100044,
    "fecha_hora":1454931000000,
    "ritmo_Cardiaco":208,
    "ubicacion_actual_latitud":4.720777,
    "ubicacion_actual_longitud":-74.04755,
    "paso_puerta":""
  },
  {
    "codigo_collar":100011,
    "fecha_hora":1454931300000,
    "ritmo_Cardiaco":262,
    "ubicacion_actual_latitud":4.723603,
    "ubicacion_actual_longitud":-74.047562,
    "paso_puerta":"salio"
  },
  {
    "codigo_collar":100022,
    "fecha_hora":1454931600000,
    "ritmo_Cardiaco":269,
    "ubicacion_actual_latitud":4.721325,
    "ubicacion_actual_longitud":-74.039065,
    "paso_puerta":"llego"
  },
  {
    "codigo_collar":100042,
    "fecha_hora":1454931900000,
    "ritmo_Cardiaco":286,
    "ubicacion_actual_latitud":4.719662,
    "ubicacion_actual_longitud":-74.040425,
    "paso_puerta":""
  },
  {
    "codigo_collar":100024,
    "fecha_hora":1454932200000,
    "ritmo_Cardiaco":196,
    "ubicacion_actual_latitud":4.720067,
    "ubicacion_actual_longitud":-74.034651,
    "paso_puerta":""
  },
  {
    "codigo_collar":100023,
    "fecha_hora":1454932500000,
    "ritmo_Cardiaco":31,
    "ubicacion_actual_latitud":4.720565,
    "ubicacion_actual_longitud":-74.036683,
    "paso_puerta":"llego"
  },
  {
    "codigo_collar":100036,
    "fecha_hora":1454932800000,
    "ritmo_Cardiaco":277,
    "ubicacion_actual_latitud":4.724682,
    "ubicacion_actual_longitud":-74.036198,
    "paso_puerta":"salio"
  },
  {
    "codigo_collar":100017,
    "fecha_hora":1454933100000,
    "ritmo_Cardiaco":277,
    "ubicacion_actual_latitud":4.718753,
    "ubicacion_actual_longitud":-74.041741,
    "paso_puerta":"salio"
  },
  {
    "codigo_collar":100031,
    "fecha_hora":1454933400000,
    "ritmo_Cardiaco":125,
    "ubicacion_actual_latitud":4.721182,
    "ubicacion_actual_longitud":-74.035103,
    "paso_puerta":"llego"
  },
  {
    "codigo_collar":100027,
    "fecha_hora":1454933700000,
    "ritmo_Cardiaco":119,
    "ubicacion_actual_latitud":4.72222,
    "ubicacion_actual_longitud":-74.035515,
    "paso_puerta":"llego"
  },
  {
    "codigo_collar":100035,
    "fecha_hora":1454934000000,
    "ritmo_Cardiaco":48,
    "ubicacion_actual_latitud":4.719924,
    "ubicacion_actual_longitud":-74.037847,
    "paso_puerta":""
  },
  {
    "codigo_collar":100028,
    "fecha_hora":1454934300000,
    "ritmo_Cardiaco":135,
    "ubicacion_actual_latitud":4.723827,
    "ubicacion_actual_longitud":-74.049949,
    "paso_puerta":"llego"
  },
  {
    "codigo_collar":100048,
    "fecha_hora":1454934600000,
    "ritmo_Cardiaco":135,
    "ubicacion_actual_latitud":4.718738,
    "ubicacion_actual_longitud":-74.048548,
    "paso_puerta":"llego"
  },
  {
    "codigo_collar":100008,
    "fecha_hora":1454934900000,
    "ritmo_Cardiaco":216,
    "ubicacion_actual_latitud":4.722749,
    "ubicacion_actual_longitud":-74.047247,
    "paso_puerta":"llego"
  },
  {
    "codigo_collar":100040,
    "fecha_hora":1454935200000,
    "ritmo_Cardiaco":335,
    "ubicacion_actual_latitud":4.720882,
    "ubicacion_actual_longitud":-74.050284,
    "paso_puerta":"salio"
  },
  {
    "codigo_collar":100037,
    "fecha_hora":1454935500000,
    "ritmo_Cardiaco":21,
    "ubicacion_actual_latitud":4.72435,
    "ubicacion_actual_longitud":-74.04215,
    "paso_puerta":"llego"
  },
  {
    "codigo_collar":100037,
    "fecha_hora":1454935800000,
    "ritmo_Cardiaco":261,
    "ubicacion_actual_latitud":4.723086,
    "ubicacion_actual_longitud":-74.040379,
    "paso_puerta":""
  },
  {
    "codigo_collar":100018,
    "fecha_hora":1454936100000,
    "ritmo_Cardiaco":258,
    "ubicacion_actual_latitud":4.723019,
    "ubicacion_actual_longitud":-74.040319,
    "paso_puerta":""
  },
  {
    "codigo_collar":100031,
    "fecha_hora":1454936400000,
    "ritmo_Cardiaco":306,
    "ubicacion_actual_latitud":4.718316,
    "ubicacion_actual_longitud":-74.03743,
    "paso_puerta":"salio"
  },
  {
    "codigo_collar":100039,
    "fecha_hora":1454936700000,
    "ritmo_Cardiaco":218,
    "ubicacion_actual_latitud":4.722087,
    "ubicacion_actual_longitud":-74.049706,
    "paso_puerta":""
  },
  {
    "codigo_collar":100012,
    "fecha_hora":1454937000000,
    "ritmo_Cardiaco":111,
    "ubicacion_actual_latitud":4.722263,
    "ubicacion_actual_longitud":-74.047207,
    "paso_puerta":"llego"
  },
  {
    "codigo_collar":100014,
    "fecha_hora":1454937300000,
    "ritmo_Cardiaco":276,
    "ubicacion_actual_latitud":4.720704,
    "ubicacion_actual_longitud":-74.037089,
    "paso_puerta":""
  },
  {
    "codigo_collar":100005,
    "fecha_hora":1454937600000,
    "ritmo_Cardiaco":316,
    "ubicacion_actual_latitud":4.72414,
    "ubicacion_actual_longitud":-74.04875,
    "paso_puerta":""
  },
  {
    "codigo_collar":100030,
    "fecha_hora":1454937900000,
    "ritmo_Cardiaco":116,
    "ubicacion_actual_latitud":4.718516,
    "ubicacion_actual_longitud":-74.043683,
    "paso_puerta":"salio"
  },
  {
    "codigo_collar":100033,
    "fecha_hora":1454938200000,
    "ritmo_Cardiaco":338,
    "ubicacion_actual_latitud":4.723097,
    "ubicacion_actual_longitud":-74.043382,
    "paso_puerta":"salio"
  },
  {
    "codigo_collar":100015,
    "fecha_hora":1454938500000,
    "ritmo_Cardiaco":70,
    "ubicacion_actual_latitud":4.719686,
    "ubicacion_actual_longitud":-74.045579,
    "paso_puerta":"llego"
  },
  {
    "codigo_collar":100029,
    "fecha_hora":1454938800000,
    "ritmo_Cardiaco":105,
    "ubicacion_actual_latitud":4.72028,
    "ubicacion_actual_longitud":-74.033752,
    "paso_puerta":""
  },
  {
    "codigo_collar":100046,
    "fecha_hora":1454939100000,
    "ritmo_Cardiaco":219,
    "ubicacion_actual_latitud":4.723292,
    "ubicacion_actual_longitud":-74.035316,
    "paso_puerta":""
  },
  {
    "codigo_collar":100049,
    "fecha_hora":1454939400000,
    "ritmo_Cardiaco":153,
    "ubicacion_actual_latitud":4.721943,
    "ubicacion_actual_longitud":-74.043742,
    "paso_puerta":""
  },
  {
    "codigo_collar":100030,
    "fecha_hora":1454939700000,
    "ritmo_Cardiaco":172,
    "ubicacion_actual_latitud":4.723711,
    "ubicacion_actual_longitud":-74.04769,
    "paso_puerta":""
  },
  {
    "codigo_collar":100025,
    "fecha_hora":1454940000000,
    "ritmo_Cardiaco":262,
    "ubicacion_actual_latitud":4.724421,
    "ubicacion_actual_longitud":-74.037573,
    "paso_puerta":"llego"
  },
  {
    "codigo_collar":100009,
    "fecha_hora":1454940300000,
    "ritmo_Cardiaco":71,
    "ubicacion_actual_latitud":4.720591,
    "ubicacion_actual_longitud":-74.040236,
    "paso_puerta":"llego"
  },
  {
    "codigo_collar":100040,
    "fecha_hora":1454940600000,
    "ritmo_Cardiaco":290,
    "ubicacion_actual_latitud":4.718813,
    "ubicacion_actual_longitud":-74.050369,
    "paso_puerta":"salio"
  },
  {
    "codigo_collar":100037,
    "fecha_hora":1454940900000,
    "ritmo_Cardiaco":206,
    "ubicacion_actual_latitud":4.71893,
    "ubicacion_actual_longitud":-74.049906,
    "paso_puerta":"llego"
  },
  {
    "codigo_collar":100047,
    "fecha_hora":1454941200000,
    "ritmo_Cardiaco":59,
    "ubicacion_actual_latitud":4.722486,
    "ubicacion_actual_longitud":-74.047493,
    "paso_puerta":"salio"
  },
  {
    "codigo_collar":100005,
    "fecha_hora":1454941500000,
    "ritmo_Cardiaco":40,
    "ubicacion_actual_latitud":4.720569,
    "ubicacion_actual_longitud":-74.050353,
    "paso_puerta":""
  },
  {
    "codigo_collar":100026,
    "fecha_hora":1454941800000,
    "ritmo_Cardiaco":278,
    "ubicacion_actual_latitud":4.724068,
    "ubicacion_actual_longitud":-74.043676,
    "paso_puerta":"llego"
  },
  {
    "codigo_collar":100025,
    "fecha_hora":1454942100000,
    "ritmo_Cardiaco":321,
    "ubicacion_actual_latitud":4.72195,
    "ubicacion_actual_longitud":-74.033732,
    "paso_puerta":"salio"
  },
  {
    "codigo_collar":100006,
    "fecha_hora":1454942400000,
    "ritmo_Cardiaco":271,
    "ubicacion_actual_latitud":4.719898,
    "ubicacion_actual_longitud":-74.043353,
    "paso_puerta":"llego"
  },
  {
    "codigo_collar":100028,
    "fecha_hora":1454942700000,
    "ritmo_Cardiaco":319,
    "ubicacion_actual_latitud":4.721018,
    "ubicacion_actual_longitud":-74.044765,
    "paso_puerta":""
  },
  {
    "codigo_collar":100003,
    "fecha_hora":1454943000000,
    "ritmo_Cardiaco":76,
    "ubicacion_actual_latitud":4.718761,
    "ubicacion_actual_longitud":-74.050012,
    "paso_puerta":"llego"
  },
  {
    "codigo_collar":100016,
    "fecha_hora":1454943300000,
    "ritmo_Cardiaco":347,
    "ubicacion_actual_latitud":4.723783,
    "ubicacion_actual_longitud":-74.034691,
    "paso_puerta":""
  },
  {
    "codigo_collar":100001,
    "fecha_hora":1454943600000,
    "ritmo_Cardiaco":123,
    "ubicacion_actual_latitud":4.721055,
    "ubicacion_actual_longitud":-74.042617,
    "paso_puerta":""
  },
  {
    "codigo_collar":100014,
    "fecha_hora":1454943900000,
    "ritmo_Cardiaco":258,
    "ubicacion_actual_latitud":4.720054,
    "ubicacion_actual_longitud":-74.047499,
    "paso_puerta":""
  },
  {
    "codigo_collar":100055,
    "fecha_hora":1454944200000,
    "ritmo_Cardiaco":158,
    "ubicacion_actual_latitud":4.723603,
    "ubicacion_actual_longitud":-74.03735,
    "paso_puerta":"salio"
  },
  {
    "codigo_collar":100023,
    "fecha_hora":1454944500000,
    "ritmo_Cardiaco":206,
    "ubicacion_actual_latitud":4.722164,
    "ubicacion_actual_longitud":-74.041891,
    "paso_puerta":"llego"
  },
  {
    "codigo_collar":100035,
    "fecha_hora":1454944800000,
    "ritmo_Cardiaco":200,
    "ubicacion_actual_latitud":4.72111,
    "ubicacion_actual_longitud":-74.036288,
    "paso_puerta":"salio"
  },
  {
    "codigo_collar":100024,
    "fecha_hora":1454945100000,
    "ritmo_Cardiaco":233,
    "ubicacion_actual_latitud":4.724807,
    "ubicacion_actual_longitud":-74.045258,
    "paso_puerta":"llego"
  },
  {
    "codigo_collar":100047,
    "fecha_hora":1454945400000,
    "ritmo_Cardiaco":337,
    "ubicacion_actual_latitud":4.720361,
    "ubicacion_actual_longitud":-74.037849,
    "paso_puerta":"llego"
  },
  {
    "codigo_collar":100045,
    "fecha_hora":1454945700000,
    "ritmo_Cardiaco":256,
    "ubicacion_actual_latitud":4.72113,
    "ubicacion_actual_longitud":-74.044665,
    "paso_puerta":"llego"
  },
  {
    "codigo_collar":100011,
    "fecha_hora":1454946000000,
    "ritmo_Cardiaco":291,
    "ubicacion_actual_latitud":4.722905,
    "ubicacion_actual_longitud":-74.048998,
    "paso_puerta":"salio"
  },
  {
    "codigo_collar":100040,
    "fecha_hora":1454946300000,
    "ritmo_Cardiaco":80,
    "ubicacion_actual_latitud":4.719829,
    "ubicacion_actual_longitud":-74.035704,
    "paso_puerta":"salio"
  },
  {
    "codigo_collar":100003,
    "fecha_hora":1454946600000,
    "ritmo_Cardiaco":94,
    "ubicacion_actual_latitud":4.720283,
    "ubicacion_actual_longitud":-74.041047,
    "paso_puerta":"llego"
  },
  {
    "codigo_collar":100014,
    "fecha_hora":1454946900000,
    "ritmo_Cardiaco":87,
    "ubicacion_actual_latitud":4.720684,
    "ubicacion_actual_longitud":-74.036935,
    "paso_puerta":"llego"
  },
  {
    "codigo_collar":100022,
    "fecha_hora":1454947200000,
    "ritmo_Cardiaco":137,
    "ubicacion_actual_latitud":4.719241,
    "ubicacion_actual_longitud":-74.033597,
    "paso_puerta":"llego"
  },
  {
    "codigo_collar":100046,
    "fecha_hora":1454947500000,
    "ritmo_Cardiaco":134,
    "ubicacion_actual_latitud":4.72301,
    "ubicacion_actual_longitud":-74.036234,
    "paso_puerta":"salio"
  },
  {
    "codigo_collar":100056,
    "fecha_hora":1454947800000,
    "ritmo_Cardiaco":135,
    "ubicacion_actual_latitud":4.719731,
    "ubicacion_actual_longitud":-74.044425,
    "paso_puerta":"salio"
  },
  {
    "codigo_collar":100009,
    "fecha_hora":1454948100000,
    "ritmo_Cardiaco":300,
    "ubicacion_actual_latitud":4.719796,
    "ubicacion_actual_longitud":-74.045039,
    "paso_puerta":"salio"
  },
  {
    "codigo_collar":100050,
    "fecha_hora":1454948400000,
    "ritmo_Cardiaco":195,
    "ubicacion_actual_latitud":4.723568,
    "ubicacion_actual_longitud":-74.039762,
    "paso_puerta":"llego"
  },
  {
    "codigo_collar":100032,
    "fecha_hora":1454948700000,
    "ritmo_Cardiaco":98,
    "ubicacion_actual_latitud":4.718172,
    "ubicacion_actual_longitud":-74.046885,
    "paso_puerta":"salio"
  },
  {
    "codigo_collar":100003,
    "fecha_hora":1454949000000,
    "ritmo_Cardiaco":267,
    "ubicacion_actual_latitud":4.723537,
    "ubicacion_actual_longitud":-74.047462,
    "paso_puerta":"salio"
  },
  {
    "codigo_collar":100028,
    "fecha_hora":1454949300000,
    "ritmo_Cardiaco":319,
    "ubicacion_actual_latitud":4.717881,
    "ubicacion_actual_longitud":-74.035685,
    "paso_puerta":"llego"
  },
  {
    "codigo_collar":100031,
    "fecha_hora":1454949600000,
    "ritmo_Cardiaco":283,
    "ubicacion_actual_latitud":4.720241,
    "ubicacion_actual_longitud":-74.047594,
    "paso_puerta":"salio"
  },
  {
    "codigo_collar":100020,
    "fecha_hora":1454949900000,
    "ritmo_Cardiaco":256,
    "ubicacion_actual_latitud":4.721965,
    "ubicacion_actual_longitud":-74.0471,
    "paso_puerta":"salio"
  }
]
