[
  {
    "codigo_collar":100037,
    "fecha_hora":1455102000000,
    "ritmo_Cardiaco":336,
    "ubicacion_actual_latitud":4.72374,
    "ubicacion_actual_longitud":-74.034958,
    "paso_puerta":""
  },
  {
    "codigo_collar":100015,
    "fecha_hora":1455102300000,
    "ritmo_Cardiaco":221,
    "ubicacion_actual_latitud":4.71795,
    "ubicacion_actual_longitud":-74.04338,
    "paso_puerta":""
  },
  {
    "codigo_collar":100006,
    "fecha_hora":1455102600000,
    "ritmo_Cardiaco":68,
    "ubicacion_actual_latitud":4.720923,
    "ubicacion_actual_longitud":-74.035022,
    "paso_puerta":"llego"
  },
  {
    "codigo_collar":100031,
    "fecha_hora":1455102900000,
    "ritmo_Cardiaco":334,
    "ubicacion_actual_latitud":4.720547,
    "ubicacion_actual_longitud":-74.044812,
    "paso_puerta":"salio"
  },
  {
    "codigo_collar":100030,
    "fecha_hora":1455103200000,
    "ritmo_Cardiaco":263,
    "ubicacion_actual_latitud":4.719089,
    "ubicacion_actual_longitud":-74.046918,
    "paso_puerta":"llego"
  },
  {
    "codigo_collar":100023,
    "fecha_hora":1455103500000,
    "ritmo_Cardiaco":220,
    "ubicacion_actual_latitud":4.721003,
    "ubicacion_actual_longitud":-74.043798,
    "paso_puerta":"llego"
  },
  {
    "codigo_collar":100014,
    "fecha_hora":1455103800000,
    "ritmo_Cardiaco":227,
    "ubicacion_actual_latitud":4.723974,
    "ubicacion_actual_longitud":-74.034029,
    "paso_puerta":""
  },
  {
    "codigo_collar":100035,
    "fecha_hora":1455104100000,
    "ritmo_Cardiaco":29,
    "ubicacion_actual_latitud":4.72306,
    "ubicacion_actual_longitud":-74.036241,
    "paso_puerta":""
  },
  {
    "codigo_collar":100038,
    "fecha_hora":1455104400000,
    "ritmo_Cardiaco":271,
    "ubicacion_actual_latitud":4.721892,
    "ubicacion_actual_longitud":-74.049822,
    "paso_puerta":"llego"
  },
  {
    "codigo_collar":100024,
    "fecha_hora":1455104700000,
    "ritmo_Cardiaco":132,
    "ubicacion_actual_latitud":4.722132,
    "ubicacion_actual_longitud":-74.047741,
    "paso_puerta":"salio"
  },
  {
    "codigo_collar":100037,
    "fecha_hora":1455105000000,
    "ritmo_Cardiaco":191,
    "ubicacion_actual_latitud":4.719198,
    "ubicacion_actual_longitud":-74.046177,
    "paso_puerta":"salio"
  },
  {
    "codigo_collar":100039,
    "fecha_hora":1455105300000,
    "ritmo_Cardiaco":313,
    "ubicacion_actual_latitud":4.723904,
    "ubicacion_actual_longitud":-74.03802,
    "paso_puerta":"salio"
  },
  {
    "codigo_collar":100054,
    "fecha_hora":1455105600000,
    "ritmo_Cardiaco":244,
    "ubicacion_actual_latitud":4.720599,
    "ubicacion_actual_longitud":-74.036833,
    "paso_puerta":""
  },
  {
    "codigo_collar":100025,
    "fecha_hora":1455105900000,
    "ritmo_Cardiaco":239,
    "ubicacion_actual_latitud":4.719056,
    "ubicacion_actual_longitud":-74.04166,
    "paso_puerta":"llego"
  },
  {
    "codigo_collar":100052,
    "fecha_hora":1455106200000,
    "ritmo_Cardiaco":281,
    "ubicacion_actual_latitud":4.724735,
    "ubicacion_actual_longitud":-74.042014,
    "paso_puerta":"llego"
  },
  {
    "codigo_collar":100054,
    "fecha_hora":1455106500000,
    "ritmo_Cardiaco":129,
    "ubicacion_actual_latitud":4.720781,
    "ubicacion_actual_longitud":-74.047266,
    "paso_puerta":"llego"
  },
  {
    "codigo_collar":100058,
    "fecha_hora":1455106800000,
    "ritmo_Cardiaco":167,
    "ubicacion_actual_latitud":4.718491,
    "ubicacion_actual_longitud":-74.039575,
    "paso_puerta":""
  },
  {
    "codigo_collar":100042,
    "fecha_hora":1455107100000,
    "ritmo_Cardiaco":66,
    "ubicacion_actual_latitud":4.722014,
    "ubicacion_actual_longitud":-74.049051,
    "paso_puerta":""
  },
  {
    "codigo_collar":100054,
    "fecha_hora":1455107400000,
    "ritmo_Cardiaco":65,
    "ubicacion_actual_latitud":4.722762,
    "ubicacion_actual_longitud":-74.035272,
    "paso_puerta":""
  },
  {
    "codigo_collar":100019,
    "fecha_hora":1455107700000,
    "ritmo_Cardiaco":47,
    "ubicacion_actual_latitud":4.719798,
    "ubicacion_actual_longitud":-74.047871,
    "paso_puerta":"salio"
  },
  {
    "codigo_collar":100033,
    "fecha_hora":1455108000000,
    "ritmo_Cardiaco":231,
    "ubicacion_actual_latitud":4.722599,
    "ubicacion_actual_longitud":-74.044646,
    "paso_puerta":"llego"
  },
  {
    "codigo_collar":100023,
    "fecha_hora":1455108300000,
    "ritmo_Cardiaco":44,
    "ubicacion_actual_latitud":4.722214,
    "ubicacion_actual_longitud":-74.042813,
    "paso_puerta":"salio"
  },
  {
    "codigo_collar":100005,
    "fecha_hora":1455108600000,
    "ritmo_Cardiaco":45,
    "ubicacion_actual_latitud":4.71864,
    "ubicacion_actual_longitud":-74.042261,
    "paso_puerta":""
  },
  {
    "codigo_collar":100058,
    "fecha_hora":1455108900000,
    "ritmo_Cardiaco":332,
    "ubicacion_actual_latitud":4.719883,
    "ubicacion_actual_longitud":-74.043827,
    "paso_puerta":"salio"
  },
  {
    "codigo_collar":100020,
    "fecha_hora":1455109200000,
    "ritmo_Cardiaco":189,
    "ubicacion_actual_latitud":4.721635,
    "ubicacion_actual_longitud":-74.050135,
    "paso_puerta":"llego"
  },
  {
    "codigo_collar":100030,
    "fecha_hora":1455109500000,
    "ritmo_Cardiaco":261,
    "ubicacion_actual_latitud":4.724235,
    "ubicacion_actual_longitud":-74.049762,
    "paso_puerta":"salio"
  },
  {
    "codigo_collar":100019,
    "fecha_hora":1455109800000,
    "ritmo_Cardiaco":213,
    "ubicacion_actual_latitud":4.721113,
    "ubicacion_actual_longitud":-74.034218,
    "paso_puerta":"salio"
  },
  {
    "codigo_collar":100042,
    "fecha_hora":1455110100000,
    "ritmo_Cardiaco":23,
    "ubicacion_actual_latitud":4.721632,
    "ubicacion_actual_longitud":-74.044362,
    "paso_puerta":"llego"
  },
  {
    "codigo_collar":100016,
    "fecha_hora":1455110400000,
    "ritmo_Cardiaco":206,
    "ubicacion_actual_latitud":4.71807,
    "ubicacion_actual_longitud":-74.038752,
    "paso_puerta":"llego"
  },
  {
    "codigo_collar":100022,
    "fecha_hora":1455110700000,
    "ritmo_Cardiaco":318,
    "ubicacion_actual_latitud":4.719432,
    "ubicacion_actual_longitud":-74.049333,
    "paso_puerta":"llego"
  },
  {
    "codigo_collar":100013,
    "fecha_hora":1455111000000,
    "ritmo_Cardiaco":254,
    "ubicacion_actual_latitud":4.717871,
    "ubicacion_actual_longitud":-74.035638,
    "paso_puerta":""
  },
  {
    "codigo_collar":100022,
    "fecha_hora":1455111300000,
    "ritmo_Cardiaco":229,
    "ubicacion_actual_latitud":4.717712,
    "ubicacion_actual_longitud":-74.049312,
    "paso_puerta":""
  },
  {
    "codigo_collar":100056,
    "fecha_hora":1455111600000,
    "ritmo_Cardiaco":349,
    "ubicacion_actual_latitud":4.719394,
    "ubicacion_actual_longitud":-74.049099,
    "paso_puerta":"llego"
  },
  {
    "codigo_collar":100008,
    "fecha_hora":1455111900000,
    "ritmo_Cardiaco":342,
    "ubicacion_actual_latitud":4.724678,
    "ubicacion_actual_longitud":-74.049714,
    "paso_puerta":""
  },
  {
    "codigo_collar":100051,
    "fecha_hora":1455112200000,
    "ritmo_Cardiaco":238,
    "ubicacion_actual_latitud":4.720157,
    "ubicacion_actual_longitud":-74.041862,
    "paso_puerta":"llego"
  },
  {
    "codigo_collar":100055,
    "fecha_hora":1455112500000,
    "ritmo_Cardiaco":82,
    "ubicacion_actual_latitud":4.724656,
    "ubicacion_actual_longitud":-74.045815,
    "paso_puerta":"salio"
  },
  {
    "codigo_collar":100031,
    "fecha_hora":1455112800000,
    "ritmo_Cardiaco":144,
    "ubicacion_actual_latitud":4.720113,
    "ubicacion_actual_longitud":-74.048394,
    "paso_puerta":"salio"
  },
  {
    "codigo_collar":100037,
    "fecha_hora":1455113100000,
    "ritmo_Cardiaco":102,
    "ubicacion_actual_latitud":4.718041,
    "ubicacion_actual_longitud":-74.046523,
    "paso_puerta":"llego"
  },
  {
    "codigo_collar":100032,
    "fecha_hora":1455113400000,
    "ritmo_Cardiaco":294,
    "ubicacion_actual_latitud":4.723417,
    "ubicacion_actual_longitud":-74.034891,
    "paso_puerta":""
  },
  {
    "codigo_collar":100001,
    "fecha_hora":1455113700000,
    "ritmo_Cardiaco":146,
    "ubicacion_actual_latitud":4.722004,
    "ubicacion_actual_longitud":-74.04893,
    "paso_puerta":"llego"
  },
  {
    "codigo_collar":100028,
    "fecha_hora":1455114000000,
    "ritmo_Cardiaco":33,
    "ubicacion_actual_latitud":4.719292,
    "ubicacion_actual_longitud":-74.044223,
    "paso_puerta":""
  },
  {
    "codigo_collar":100018,
    "fecha_hora":1455114300000,
    "ritmo_Cardiaco":81,
    "ubicacion_actual_latitud":4.718387,
    "ubicacion_actual_longitud":-74.045559,
    "paso_puerta":""
  },
  {
    "codigo_collar":100046,
    "fecha_hora":1455114600000,
    "ritmo_Cardiaco":275,
    "ubicacion_actual_latitud":4.718553,
    "ubicacion_actual_longitud":-74.036801,
    "paso_puerta":""
  },
  {
    "codigo_collar":100053,
    "fecha_hora":1455114900000,
    "ritmo_Cardiaco":216,
    "ubicacion_actual_latitud":4.721629,
    "ubicacion_actual_longitud":-74.044961,
    "paso_puerta":"salio"
  },
  {
    "codigo_collar":100026,
    "fecha_hora":1455115200000,
    "ritmo_Cardiaco":139,
    "ubicacion_actual_latitud":4.718606,
    "ubicacion_actual_longitud":-74.044003,
    "paso_puerta":"salio"
  },
  {
    "codigo_collar":100010,
    "fecha_hora":1455115500000,
    "ritmo_Cardiaco":122,
    "ubicacion_actual_latitud":4.718973,
    "ubicacion_actual_longitud":-74.037412,
    "paso_puerta":"salio"
  },
  {
    "codigo_collar":100042,
    "fecha_hora":1455115800000,
    "ritmo_Cardiaco":78,
    "ubicacion_actual_latitud":4.719123,
    "ubicacion_actual_longitud":-74.04981,
    "paso_puerta":"llego"
  },
  {
    "codigo_collar":100004,
    "fecha_hora":1455116100000,
    "ritmo_Cardiaco":234,
    "ubicacion_actual_latitud":4.720816,
    "ubicacion_actual_longitud":-74.044005,
    "paso_puerta":""
  },
  {
    "codigo_collar":100010,
    "fecha_hora":1455116400000,
    "ritmo_Cardiaco":174,
    "ubicacion_actual_latitud":4.719465,
    "ubicacion_actual_longitud":-74.045949,
    "paso_puerta":"llego"
  },
  {
    "codigo_collar":100022,
    "fecha_hora":1455116700000,
    "ritmo_Cardiaco":94,
    "ubicacion_actual_latitud":4.718611,
    "ubicacion_actual_longitud":-74.047767,
    "paso_puerta":"salio"
  },
  {
    "codigo_collar":100027,
    "fecha_hora":1455117000000,
    "ritmo_Cardiaco":26,
    "ubicacion_actual_latitud":4.719939,
    "ubicacion_actual_longitud":-74.042653,
    "paso_puerta":"llego"
  },
  {
    "codigo_collar":100041,
    "fecha_hora":1455117300000,
    "ritmo_Cardiaco":275,
    "ubicacion_actual_latitud":4.722544,
    "ubicacion_actual_longitud":-74.046773,
    "paso_puerta":"salio"
  },
  {
    "codigo_collar":100013,
    "fecha_hora":1455117600000,
    "ritmo_Cardiaco":309,
    "ubicacion_actual_latitud":4.721208,
    "ubicacion_actual_longitud":-74.039083,
    "paso_puerta":""
  },
  {
    "codigo_collar":100014,
    "fecha_hora":1455117900000,
    "ritmo_Cardiaco":25,
    "ubicacion_actual_latitud":4.720314,
    "ubicacion_actual_longitud":-74.047024,
    "paso_puerta":""
  },
  {
    "codigo_collar":100019,
    "fecha_hora":1455118200000,
    "ritmo_Cardiaco":21,
    "ubicacion_actual_latitud":4.723483,
    "ubicacion_actual_longitud":-74.034106,
    "paso_puerta":"llego"
  },
  {
    "codigo_collar":100016,
    "fecha_hora":1455118500000,
    "ritmo_Cardiaco":112,
    "ubicacion_actual_latitud":4.720686,
    "ubicacion_actual_longitud":-74.038885,
    "paso_puerta":""
  },
  {
    "codigo_collar":100030,
    "fecha_hora":1455118800000,
    "ritmo_Cardiaco":271,
    "ubicacion_actual_latitud":4.719117,
    "ubicacion_actual_longitud":-74.04257,
    "paso_puerta":""
  },
  {
    "codigo_collar":100044,
    "fecha_hora":1455119100000,
    "ritmo_Cardiaco":198,
    "ubicacion_actual_latitud":4.722361,
    "ubicacion_actual_longitud":-74.043906,
    "paso_puerta":""
  },
  {
    "codigo_collar":100051,
    "fecha_hora":1455119400000,
    "ritmo_Cardiaco":241,
    "ubicacion_actual_latitud":4.719859,
    "ubicacion_actual_longitud":-74.046176,
    "paso_puerta":"llego"
  },
  {
    "codigo_collar":100008,
    "fecha_hora":1455119700000,
    "ritmo_Cardiaco":214,
    "ubicacion_actual_latitud":4.721741,
    "ubicacion_actual_longitud":-74.0423,
    "paso_puerta":""
  },
  {
    "codigo_collar":100033,
    "fecha_hora":1455120000000,
    "ritmo_Cardiaco":324,
    "ubicacion_actual_latitud":4.723589,
    "ubicacion_actual_longitud":-74.043238,
    "paso_puerta":""
  },
  {
    "codigo_collar":100005,
    "fecha_hora":1455120300000,
    "ritmo_Cardiaco":265,
    "ubicacion_actual_latitud":4.721669,
    "ubicacion_actual_longitud":-74.050349,
    "paso_puerta":"llego"
  },
  {
    "codigo_collar":100013,
    "fecha_hora":1455120600000,
    "ritmo_Cardiaco":147,
    "ubicacion_actual_latitud":4.720741,
    "ubicacion_actual_longitud":-74.038549,
    "paso_puerta":""
  },
  {
    "codigo_collar":100055,
    "fecha_hora":1455120900000,
    "ritmo_Cardiaco":265,
    "ubicacion_actual_latitud":4.724048,
    "ubicacion_actual_longitud":-74.034483,
    "paso_puerta":"salio"
  },
  {
    "codigo_collar":100032,
    "fecha_hora":1455121200000,
    "ritmo_Cardiaco":116,
    "ubicacion_actual_latitud":4.71786,
    "ubicacion_actual_longitud":-74.034863,
    "paso_puerta":"llego"
  },
  {
    "codigo_collar":100004,
    "fecha_hora":1455121500000,
    "ritmo_Cardiaco":226,
    "ubicacion_actual_latitud":4.723177,
    "ubicacion_actual_longitud":-74.048712,
    "paso_puerta":""
  },
  {
    "codigo_collar":100020,
    "fecha_hora":1455121800000,
    "ritmo_Cardiaco":279,
    "ubicacion_actual_latitud":4.724283,
    "ubicacion_actual_longitud":-74.046996,
    "paso_puerta":"llego"
  },
  {
    "codigo_collar":100030,
    "fecha_hora":1455122100000,
    "ritmo_Cardiaco":330,
    "ubicacion_actual_latitud":4.721711,
    "ubicacion_actual_longitud":-74.03664,
    "paso_puerta":"llego"
  },
  {
    "codigo_collar":100007,
    "fecha_hora":1455122400000,
    "ritmo_Cardiaco":94,
    "ubicacion_actual_latitud":4.719814,
    "ubicacion_actual_longitud":-74.045697,
    "paso_puerta":""
  },
  {
    "codigo_collar":100056,
    "fecha_hora":1455122700000,
    "ritmo_Cardiaco":23,
    "ubicacion_actual_latitud":4.718692,
    "ubicacion_actual_longitud":-74.047555,
    "paso_puerta":"llego"
  }
]
