[
  {
    "codigo_collar":100050,
    "fecha_hora":1455015600000,
    "ritmo_Cardiaco":49,
    "ubicacion_actual_latitud":4.723666,
    "ubicacion_actual_longitud":-74.045352,
    "paso_puerta":"llego"
  },
  {
    "codigo_collar":100026,
    "fecha_hora":1455015900000,
    "ritmo_Cardiaco":109,
    "ubicacion_actual_latitud":4.722632,
    "ubicacion_actual_longitud":-74.044787,
    "paso_puerta":"salio"
  },
  {
    "codigo_collar":100052,
    "fecha_hora":1455016200000,
    "ritmo_Cardiaco":55,
    "ubicacion_actual_latitud":4.723837,
    "ubicacion_actual_longitud":-74.047282,
    "paso_puerta":""
  },
  {
    "codigo_collar":100016,
    "fecha_hora":1455016500000,
    "ritmo_Cardiaco":86,
    "ubicacion_actual_latitud":4.722216,
    "ubicacion_actual_longitud":-74.047952,
    "paso_puerta":"salio"
  },
  {
    "codigo_collar":100007,
    "fecha_hora":1455016800000,
    "ritmo_Cardiaco":114,
    "ubicacion_actual_latitud":4.723788,
    "ubicacion_actual_longitud":-74.047201,
    "paso_puerta":"llego"
  },
  {
    "codigo_collar":100051,
    "fecha_hora":1455017100000,
    "ritmo_Cardiaco":42,
    "ubicacion_actual_latitud":4.719526,
    "ubicacion_actual_longitud":-74.048414,
    "paso_puerta":"llego"
  },
  {
    "codigo_collar":100003,
    "fecha_hora":1455017400000,
    "ritmo_Cardiaco":48,
    "ubicacion_actual_latitud":4.719345,
    "ubicacion_actual_longitud":-74.048054,
    "paso_puerta":"llego"
  },
  {
    "codigo_collar":100013,
    "fecha_hora":1455017700000,
    "ritmo_Cardiaco":115,
    "ubicacion_actual_latitud":4.719674,
    "ubicacion_actual_longitud":-74.04935,
    "paso_puerta":"salio"
  },
  {
    "codigo_collar":100033,
    "fecha_hora":1455018000000,
    "ritmo_Cardiaco":44,
    "ubicacion_actual_latitud":4.719051,
    "ubicacion_actual_longitud":-74.049378,
    "paso_puerta":"salio"
  },
  {
    "codigo_collar":100015,
    "fecha_hora":1455018300000,
    "ritmo_Cardiaco":111,
    "ubicacion_actual_latitud":4.720513,
    "ubicacion_actual_longitud":-74.046932,
    "paso_puerta":"salio"
  },
  {
    "codigo_collar":100037,
    "fecha_hora":1455018600000,
    "ritmo_Cardiaco":68,
    "ubicacion_actual_latitud":4.724313,
    "ubicacion_actual_longitud":-74.044288,
    "paso_puerta":""
  },
  {
    "codigo_collar":100050,
    "fecha_hora":1455018900000,
    "ritmo_Cardiaco":88,
    "ubicacion_actual_latitud":4.718615,
    "ubicacion_actual_longitud":-74.049587,
    "paso_puerta":"salio"
  },
  {
    "codigo_collar":100012,
    "fecha_hora":1455019200000,
    "ritmo_Cardiaco":118,
    "ubicacion_actual_latitud":4.720916,
    "ubicacion_actual_longitud":-74.048998,
    "paso_puerta":"llego"
  },
  {
    "codigo_collar":100056,
    "fecha_hora":1455019500000,
    "ritmo_Cardiaco":103,
    "ubicacion_actual_latitud":4.722503,
    "ubicacion_actual_longitud":-74.044002,
    "paso_puerta":""
  },
  {
    "codigo_collar":100002,
    "fecha_hora":1455019800000,
    "ritmo_Cardiaco":52,
    "ubicacion_actual_latitud":4.721269,
    "ubicacion_actual_longitud":-74.044016,
    "paso_puerta":""
  },
  {
    "codigo_collar":100018,
    "fecha_hora":1455020100000,
    "ritmo_Cardiaco":75,
    "ubicacion_actual_latitud":4.722566,
    "ubicacion_actual_longitud":-74.04476,
    "paso_puerta":"salio"
  },
  {
    "codigo_collar":100038,
    "fecha_hora":1455020400000,
    "ritmo_Cardiaco":87,
    "ubicacion_actual_latitud":4.720771,
    "ubicacion_actual_longitud":-74.049878,
    "paso_puerta":"salio"
  },
  {
    "codigo_collar":100010,
    "fecha_hora":1455020700000,
    "ritmo_Cardiaco":87,
    "ubicacion_actual_latitud":4.722815,
    "ubicacion_actual_longitud":-74.047404,
    "paso_puerta":"salio"
  },
  {
    "codigo_collar":100049,
    "fecha_hora":1455021000000,
    "ritmo_Cardiaco":111,
    "ubicacion_actual_latitud":4.718063,
    "ubicacion_actual_longitud":-74.048172,
    "paso_puerta":"llego"
  },
  {
    "codigo_collar":100036,
    "fecha_hora":1455021300000,
    "ritmo_Cardiaco":110,
    "ubicacion_actual_latitud":4.723743,
    "ubicacion_actual_longitud":-74.047341,
    "paso_puerta":"llego"
  },
  {
    "codigo_collar":100030,
    "fecha_hora":1455021600000,
    "ritmo_Cardiaco":41,
    "ubicacion_actual_latitud":4.721832,
    "ubicacion_actual_longitud":-74.045884,
    "paso_puerta":"llego"
  },
  {
    "codigo_collar":100039,
    "fecha_hora":1455021900000,
    "ritmo_Cardiaco":112,
    "ubicacion_actual_latitud":4.719032,
    "ubicacion_actual_longitud":-74.047643,
    "paso_puerta":"salio"
  },
  {
    "codigo_collar":100055,
    "fecha_hora":1455022200000,
    "ritmo_Cardiaco":102,
    "ubicacion_actual_latitud":4.724266,
    "ubicacion_actual_longitud":-74.050425,
    "paso_puerta":"salio"
  },
  {
    "codigo_collar":100010,
    "fecha_hora":1455022500000,
    "ritmo_Cardiaco":74,
    "ubicacion_actual_latitud":4.718473,
    "ubicacion_actual_longitud":-74.045049,
    "paso_puerta":""
  },
  {
    "codigo_collar":100018,
    "fecha_hora":1455022800000,
    "ritmo_Cardiaco":92,
    "ubicacion_actual_latitud":4.720085,
    "ubicacion_actual_longitud":-74.048959,
    "paso_puerta":"salio"
  },
  {
    "codigo_collar":100015,
    "fecha_hora":1455023100000,
    "ritmo_Cardiaco":94,
    "ubicacion_actual_latitud":4.719071,
    "ubicacion_actual_longitud":-74.044364,
    "paso_puerta":"salio"
  },
  {
    "codigo_collar":100031,
    "fecha_hora":1455023400000,
    "ritmo_Cardiaco":60,
    "ubicacion_actual_latitud":4.720876,
    "ubicacion_actual_longitud":-74.045845,
    "paso_puerta":""
  },
  {
    "codigo_collar":100023,
    "fecha_hora":1455023700000,
    "ritmo_Cardiaco":75,
    "ubicacion_actual_latitud":4.722972,
    "ubicacion_actual_longitud":-74.0455,
    "paso_puerta":"salio"
  },
  {
    "codigo_collar":100040,
    "fecha_hora":1455024000000,
    "ritmo_Cardiaco":58,
    "ubicacion_actual_latitud":4.718151,
    "ubicacion_actual_longitud":-74.047564,
    "paso_puerta":"salio"
  },
  {
    "codigo_collar":100006,
    "fecha_hora":1455024300000,
    "ritmo_Cardiaco":102,
    "ubicacion_actual_latitud":4.718851,
    "ubicacion_actual_longitud":-74.044571,
    "paso_puerta":"llego"
  },
  {
    "codigo_collar":100006,
    "fecha_hora":1455024600000,
    "ritmo_Cardiaco":49,
    "ubicacion_actual_latitud":4.721382,
    "ubicacion_actual_longitud":-74.046971,
    "paso_puerta":"llego"
  },
  {
    "codigo_collar":100058,
    "fecha_hora":1455024900000,
    "ritmo_Cardiaco":117,
    "ubicacion_actual_latitud":4.718709,
    "ubicacion_actual_longitud":-74.049015,
    "paso_puerta":"salio"
  },
  {
    "codigo_collar":100053,
    "fecha_hora":1455025200000,
    "ritmo_Cardiaco":99,
    "ubicacion_actual_latitud":4.723302,
    "ubicacion_actual_longitud":-74.044497,
    "paso_puerta":"llego"
  },
  {
    "codigo_collar":100035,
    "fecha_hora":1455025500000,
    "ritmo_Cardiaco":98,
    "ubicacion_actual_latitud":4.717854,
    "ubicacion_actual_longitud":-74.04931,
    "paso_puerta":"llego"
  },
  {
    "codigo_collar":100016,
    "fecha_hora":1455025800000,
    "ritmo_Cardiaco":50,
    "ubicacion_actual_latitud":4.717746,
    "ubicacion_actual_longitud":-74.046803,
    "paso_puerta":""
  },
  {
    "codigo_collar":100042,
    "fecha_hora":1455026100000,
    "ritmo_Cardiaco":102,
    "ubicacion_actual_latitud":4.72422,
    "ubicacion_actual_longitud":-74.044161,
    "paso_puerta":"salio"
  },
  {
    "codigo_collar":100054,
    "fecha_hora":1455026400000,
    "ritmo_Cardiaco":41,
    "ubicacion_actual_latitud":4.718853,
    "ubicacion_actual_longitud":-74.048948,
    "paso_puerta":"salio"
  },
  {
    "codigo_collar":100036,
    "fecha_hora":1455026700000,
    "ritmo_Cardiaco":87,
    "ubicacion_actual_latitud":4.719754,
    "ubicacion_actual_longitud":-74.046355,
    "paso_puerta":"salio"
  },
  {
    "codigo_collar":100049,
    "fecha_hora":1455027000000,
    "ritmo_Cardiaco":46,
    "ubicacion_actual_latitud":4.718228,
    "ubicacion_actual_longitud":-74.048089,
    "paso_puerta":"salio"
  },
  {
    "codigo_collar":100038,
    "fecha_hora":1455027300000,
    "ritmo_Cardiaco":91,
    "ubicacion_actual_latitud":4.720796,
    "ubicacion_actual_longitud":-74.044702,
    "paso_puerta":""
  },
  {
    "codigo_collar":100037,
    "fecha_hora":1455027600000,
    "ritmo_Cardiaco":38,
    "ubicacion_actual_latitud":4.723301,
    "ubicacion_actual_longitud":-74.047301,
    "paso_puerta":"llego"
  },
  {
    "codigo_collar":100036,
    "fecha_hora":1455027900000,
    "ritmo_Cardiaco":77,
    "ubicacion_actual_latitud":4.721029,
    "ubicacion_actual_longitud":-74.049563,
    "paso_puerta":""
  },
  {
    "codigo_collar":100015,
    "fecha_hora":1455028200000,
    "ritmo_Cardiaco":42,
    "ubicacion_actual_latitud":4.72108,
    "ubicacion_actual_longitud":-74.04702,
    "paso_puerta":"salio"
  },
  {
    "codigo_collar":100006,
    "fecha_hora":1455028500000,
    "ritmo_Cardiaco":40,
    "ubicacion_actual_latitud":4.720842,
    "ubicacion_actual_longitud":-74.049034,
    "paso_puerta":"llego"
  },
  {
    "codigo_collar":100037,
    "fecha_hora":1455028800000,
    "ritmo_Cardiaco":46,
    "ubicacion_actual_latitud":4.718964,
    "ubicacion_actual_longitud":-74.044314,
    "paso_puerta":"llego"
  },
  {
    "codigo_collar":100040,
    "fecha_hora":1455029100000,
    "ritmo_Cardiaco":88,
    "ubicacion_actual_latitud":4.723542,
    "ubicacion_actual_longitud":-74.050103,
    "paso_puerta":"salio"
  },
  {
    "codigo_collar":100041,
    "fecha_hora":1455029400000,
    "ritmo_Cardiaco":75,
    "ubicacion_actual_latitud":4.722833,
    "ubicacion_actual_longitud":-74.047097,
    "paso_puerta":"llego"
  },
  {
    "codigo_collar":100058,
    "fecha_hora":1455029700000,
    "ritmo_Cardiaco":51,
    "ubicacion_actual_latitud":4.718315,
    "ubicacion_actual_longitud":-74.044846,
    "paso_puerta":"salio"
  },
  {
    "codigo_collar":100028,
    "fecha_hora":1455030000000,
    "ritmo_Cardiaco":51,
    "ubicacion_actual_latitud":4.721306,
    "ubicacion_actual_longitud":-74.047695,
    "paso_puerta":"llego"
  },
  {
    "codigo_collar":100048,
    "fecha_hora":1455030300000,
    "ritmo_Cardiaco":88,
    "ubicacion_actual_latitud":4.722527,
    "ubicacion_actual_longitud":-74.048375,
    "paso_puerta":"llego"
  },
  {
    "codigo_collar":100057,
    "fecha_hora":1455030600000,
    "ritmo_Cardiaco":95,
    "ubicacion_actual_latitud":4.720828,
    "ubicacion_actual_longitud":-74.04544,
    "paso_puerta":""
  },
  {
    "codigo_collar":100014,
    "fecha_hora":1455030900000,
    "ritmo_Cardiaco":59,
    "ubicacion_actual_latitud":4.722065,
    "ubicacion_actual_longitud":-74.048301,
    "paso_puerta":"llego"
  },
  {
    "codigo_collar":100009,
    "fecha_hora":1455031200000,
    "ritmo_Cardiaco":77,
    "ubicacion_actual_latitud":4.717612,
    "ubicacion_actual_longitud":-74.044904,
    "paso_puerta":""
  },
  {
    "codigo_collar":100003,
    "fecha_hora":1455031500000,
    "ritmo_Cardiaco":59,
    "ubicacion_actual_latitud":4.724251,
    "ubicacion_actual_longitud":-74.046155,
    "paso_puerta":"llego"
  },
  {
    "codigo_collar":100021,
    "fecha_hora":1455031800000,
    "ritmo_Cardiaco":98,
    "ubicacion_actual_latitud":4.721723,
    "ubicacion_actual_longitud":-74.045694,
    "paso_puerta":""
  },
  {
    "codigo_collar":100049,
    "fecha_hora":1455032100000,
    "ritmo_Cardiaco":55,
    "ubicacion_actual_latitud":4.721703,
    "ubicacion_actual_longitud":-74.047915,
    "paso_puerta":"llego"
  },
  {
    "codigo_collar":100018,
    "fecha_hora":1455032400000,
    "ritmo_Cardiaco":57,
    "ubicacion_actual_latitud":4.723846,
    "ubicacion_actual_longitud":-74.046939,
    "paso_puerta":""
  },
  {
    "codigo_collar":100055,
    "fecha_hora":1455032700000,
    "ritmo_Cardiaco":77,
    "ubicacion_actual_latitud":4.721492,
    "ubicacion_actual_longitud":-74.044349,
    "paso_puerta":"llego"
  },
  {
    "codigo_collar":100045,
    "fecha_hora":1455033000000,
    "ritmo_Cardiaco":64,
    "ubicacion_actual_latitud":4.7225,
    "ubicacion_actual_longitud":-74.0496,
    "paso_puerta":""
  },
  {
    "codigo_collar":100007,
    "fecha_hora":1455033300000,
    "ritmo_Cardiaco":69,
    "ubicacion_actual_latitud":4.719203,
    "ubicacion_actual_longitud":-74.045459,
    "paso_puerta":""
  },
  {
    "codigo_collar":100050,
    "fecha_hora":1455033600000,
    "ritmo_Cardiaco":96,
    "ubicacion_actual_latitud":4.718543,
    "ubicacion_actual_longitud":-74.047451,
    "paso_puerta":""
  },
  {
    "codigo_collar":100033,
    "fecha_hora":1455033900000,
    "ritmo_Cardiaco":78,
    "ubicacion_actual_latitud":4.724406,
    "ubicacion_actual_longitud":-74.049244,
    "paso_puerta":"salio"
  },
  {
    "codigo_collar":100046,
    "fecha_hora":1455034200000,
    "ritmo_Cardiaco":84,
    "ubicacion_actual_latitud":4.718885,
    "ubicacion_actual_longitud":-74.04611,
    "paso_puerta":"salio"
  },
  {
    "codigo_collar":100040,
    "fecha_hora":1455034500000,
    "ritmo_Cardiaco":55,
    "ubicacion_actual_latitud":4.723342,
    "ubicacion_actual_longitud":-74.046433,
    "paso_puerta":""
  },
  {
    "codigo_collar":100001,
    "fecha_hora":1455034800000,
    "ritmo_Cardiaco":60,
    "ubicacion_actual_latitud":4.723496,
    "ubicacion_actual_longitud":-74.050316,
    "paso_puerta":"salio"
  },
  {
    "codigo_collar":100039,
    "fecha_hora":1455035100000,
    "ritmo_Cardiaco":56,
    "ubicacion_actual_latitud":4.723875,
    "ubicacion_actual_longitud":-74.048542,
    "paso_puerta":"llego"
  },
  {
    "codigo_collar":100024,
    "fecha_hora":1455035400000,
    "ritmo_Cardiaco":61,
    "ubicacion_actual_latitud":4.72136,
    "ubicacion_actual_longitud":-74.050007,
    "paso_puerta":"llego"
  },
  {
    "codigo_collar":100030,
    "fecha_hora":1455035700000,
    "ritmo_Cardiaco":115,
    "ubicacion_actual_latitud":4.720232,
    "ubicacion_actual_longitud":-74.05031,
    "paso_puerta":""
  },
  {
    "codigo_collar":100025,
    "fecha_hora":1455036000000,
    "ritmo_Cardiaco":70,
    "ubicacion_actual_latitud":4.718715,
    "ubicacion_actual_longitud":-74.046542,
    "paso_puerta":"llego"
  },
  {
    "codigo_collar":100020,
    "fecha_hora":1455036300000,
    "ritmo_Cardiaco":39,
    "ubicacion_actual_latitud":4.721336,
    "ubicacion_actual_longitud":-74.045071,
    "paso_puerta":""
  }
]
